<svg width='21' height='21' xmlns='http://www.w3.org/2000/svg'>
<line x1='0' y1='0' x2='5' y2='0' stroke='black'/>
<line x1='0' y1='0' x2='0' y2='5' stroke='black'/>
<line x1='5' y1='0' x2='5' y2='5' stroke='black'/>
<line x1='5' y1='0' x2='10' y2='0' stroke='black'/>
<line x1='5' y1='0' x2='5' y2='5' stroke='black'/>
<line x1='10' y1='0' x2='15' y2='0' stroke='black'/>
<line x1='15' y1='0' x2='20' y2='0' stroke='black'/>
<line x1='20' y1='0' x2='20' y2='5' stroke='black'/>
<line x1='5' y1='5' x2='5' y2='10' stroke='black'/>
<line x1='5' y1='5' x2='5' y2='10' stroke='black'/>
<line x1='10' y1='5' x2='10' y2='10' stroke='black'/>
<line x1='5' y1='10' x2='10' y2='10' stroke='black'/>
<line x1='10' y1='5' x2='10' y2='10' stroke='black'/>
<line x1='15' y1='5' x2='15' y2='10' stroke='black'/>
<line x1='15' y1='5' x2='15' y2='10' stroke='black'/>
<line x1='15' y1='10' x2='20' y2='10' stroke='black'/>
<line x1='0' y1='10' x2='0' y2='15' stroke='black'/>
<line x1='5' y1='10' x2='5' y2='15' stroke='black'/>
<line x1='5' y1='10' x2='10' y2='10' stroke='black'/>
<line x1='5' y1='10' x2='5' y2='15' stroke='black'/>
<line x1='10' y1='10' x2='10' y2='15' stroke='black'/>
<line x1='10' y1='10' x2='10' y2='15' stroke='black'/>
<line x1='15' y1='10' x2='15' y2='15' stroke='black'/>
<line x1='15' y1='10' x2='20' y2='10' stroke='black'/>
<line x1='15' y1='10' x2='15' y2='15' stroke='black'/>
<line x1='20' y1='10' x2='20' y2='15' stroke='black'/>
<line x1='0' y1='15' x2='0' y2='20' stroke='black'/>
<line x1='0' y1='20' x2='5' y2='20' stroke='black'/>
<line x1='5' y1='20' x2='10' y2='20' stroke='black'/>
<line x1='10' y1='20' x2='15' y2='20' stroke='black'/>
<line x1='20' y1='15' x2='20' y2='20' stroke='black'/>
<line x1='15' y1='20' x2='20' y2='20' stroke='black'/>
<rect x='0' y='5' width='5' height='5' fill='green'/>
<rect x='15' y='5' width='5' height='5' fill='red'/>
</svg>
